{ 
    "_id" : {
        "id" : BinData(4, "WMwwjphIQHSLGf1Uk5D5WA=="), 
        "uid" : BinData(0, "47DEQpj8HBSa+/TImW+5JCeuQeRkm5NMpJWZG3hSuFU=")
    }, 
    "lastUse" : ISODate("2018-11-27T14:22:58.848+0000")
}
{ 
    "_id" : {
        "id" : BinData(4, "3RvDb/GNQIKIzMOTvrpcHw=="), 
        "uid" : BinData(0, "47DEQpj8HBSa+/TImW+5JCeuQeRkm5NMpJWZG3hSuFU=")
    }, 
    "lastUse" : ISODate("2018-11-27T14:22:58.848+0000")
}
{ 
    "_id" : {
        "id" : BinData(4, "C0lhY9XOQwSzFWxAjC5Avw=="), 
        "uid" : BinData(0, "47DEQpj8HBSa+/TImW+5JCeuQeRkm5NMpJWZG3hSuFU=")
    }, 
    "lastUse" : ISODate("2018-11-27T14:22:58.848+0000")
}
{ 
    "_id" : {
        "id" : BinData(4, "4dBD2R5WSDyowbJLJnVAgA=="), 
        "uid" : BinData(0, "47DEQpj8HBSa+/TImW+5JCeuQeRkm5NMpJWZG3hSuFU=")
    }, 
    "lastUse" : ISODate("2018-11-27T14:27:58.848+0000")
}
{ 
    "_id" : {
        "id" : BinData(4, "Yv7p2FPRTVK1hoeL0/sTHw=="), 
        "uid" : BinData(0, "47DEQpj8HBSa+/TImW+5JCeuQeRkm5NMpJWZG3hSuFU=")
    }, 
    "lastUse" : ISODate("2018-11-27T14:27:58.848+0000")
}
{ 
    "_id" : {
        "id" : BinData(4, "kWnRb8VOTHuKSYSOX4ptnw=="), 
        "uid" : BinData(0, "47DEQpj8HBSa+/TImW+5JCeuQeRkm5NMpJWZG3hSuFU=")
    }, 
    "lastUse" : ISODate("2018-11-27T14:27:58.848+0000")
}
{ 
    "_id" : {
        "id" : BinData(4, "TsIIznaGQFKpK//m7P3NSg=="), 
        "uid" : BinData(0, "47DEQpj8HBSa+/TImW+5JCeuQeRkm5NMpJWZG3hSuFU=")
    }, 
    "lastUse" : ISODate("2018-11-27T14:27:58.848+0000")
}
{ 
    "_id" : {
        "id" : BinData(4, "KuPYwmsbRoGY/o7SLA3Exw=="), 
        "uid" : BinData(0, "47DEQpj8HBSa+/TImW+5JCeuQeRkm5NMpJWZG3hSuFU=")
    }, 
    "lastUse" : ISODate("2018-11-27T14:27:58.848+0000")
}
{ 
    "_id" : {
        "id" : BinData(4, "0X/XPwN7T2uoqMUPhH25Ig=="), 
        "uid" : BinData(0, "47DEQpj8HBSa+/TImW+5JCeuQeRkm5NMpJWZG3hSuFU=")
    }, 
    "lastUse" : ISODate("2018-11-27T14:27:58.848+0000")
}
{ 
    "_id" : {
        "id" : BinData(4, "2iatuaeIQ262Dr7gy4i64g=="), 
        "uid" : BinData(0, "47DEQpj8HBSa+/TImW+5JCeuQeRkm5NMpJWZG3hSuFU=")
    }, 
    "lastUse" : ISODate("2018-11-27T14:27:58.848+0000")
}
{ 
    "_id" : {
        "id" : BinData(4, "9keN2rJZQzScStCb9H6NUA=="), 
        "uid" : BinData(0, "47DEQpj8HBSa+/TImW+5JCeuQeRkm5NMpJWZG3hSuFU=")
    }, 
    "lastUse" : ISODate("2018-11-27T14:27:58.848+0000")
}
{ 
    "_id" : {
        "id" : BinData(4, "hGAViZBISfG7rtQP4lYiJQ=="), 
        "uid" : BinData(0, "47DEQpj8HBSa+/TImW+5JCeuQeRkm5NMpJWZG3hSuFU=")
    }, 
    "lastUse" : ISODate("2018-11-27T14:27:58.848+0000")
}
{ 
    "_id" : {
        "id" : BinData(4, "vy2x+NlYTSSlTAo9OMYljg=="), 
        "uid" : BinData(0, "47DEQpj8HBSa+/TImW+5JCeuQeRkm5NMpJWZG3hSuFU=")
    }, 
    "lastUse" : ISODate("2018-11-27T14:27:58.848+0000")
}
{ 
    "_id" : {
        "id" : BinData(4, "dA6TLQlrTf6Z0Pol0iYzIg=="), 
        "uid" : BinData(0, "47DEQpj8HBSa+/TImW+5JCeuQeRkm5NMpJWZG3hSuFU=")
    }, 
    "lastUse" : ISODate("2018-11-27T14:32:58.848+0000")
}
{ 
    "_id" : {
        "id" : BinData(4, "QnrCpbYtS0i711DC3LEuog=="), 
        "uid" : BinData(0, "47DEQpj8HBSa+/TImW+5JCeuQeRkm5NMpJWZG3hSuFU=")
    }, 
    "lastUse" : ISODate("2018-11-27T14:32:58.848+0000")
}
{ 
    "_id" : {
        "id" : BinData(4, "ly7B5Az7TeiL7MGXdMvoAg=="), 
        "uid" : BinData(0, "47DEQpj8HBSa+/TImW+5JCeuQeRkm5NMpJWZG3hSuFU=")
    }, 
    "lastUse" : ISODate("2018-11-27T14:32:58.848+0000")
}
{ 
    "_id" : {
        "id" : BinData(4, "8shRZKuxQCiioJM2IiT0yw=="), 
        "uid" : BinData(0, "47DEQpj8HBSa+/TImW+5JCeuQeRkm5NMpJWZG3hSuFU=")
    }, 
    "lastUse" : ISODate("2018-11-27T14:42:58.849+0000")
}
{ 
    "_id" : {
        "id" : BinData(4, "FzcbRZ2BTumHqqHG3xKzOQ=="), 
        "uid" : BinData(0, "47DEQpj8HBSa+/TImW+5JCeuQeRkm5NMpJWZG3hSuFU=")
    }, 
    "lastUse" : ISODate("2018-11-27T14:32:58.849+0000")
}
{ 
    "_id" : {
        "id" : BinData(4, "YHP7TXyVR9aB+5f2qG8rfg=="), 
        "uid" : BinData(0, "47DEQpj8HBSa+/TImW+5JCeuQeRkm5NMpJWZG3hSuFU=")
    }, 
    "lastUse" : ISODate("2018-11-27T14:37:58.849+0000")
}
{ 
    "_id" : {
        "id" : BinData(4, "iHXYSlZVTYWBAW5kiHLqzQ=="), 
        "uid" : BinData(0, "47DEQpj8HBSa+/TImW+5JCeuQeRkm5NMpJWZG3hSuFU=")
    }, 
    "lastUse" : ISODate("2018-11-27T14:37:58.849+0000")
}
{ 
    "_id" : {
        "id" : BinData(4, "/g64O5I9TlSCYGZRPn8J5g=="), 
        "uid" : BinData(0, "47DEQpj8HBSa+/TImW+5JCeuQeRkm5NMpJWZG3hSuFU=")
    }, 
    "lastUse" : ISODate("2018-11-27T14:37:58.849+0000")
}
{ 
    "_id" : {
        "id" : BinData(4, "Ug436pTDRw+TY/7R8lT1nA=="), 
        "uid" : BinData(0, "47DEQpj8HBSa+/TImW+5JCeuQeRkm5NMpJWZG3hSuFU=")
    }, 
    "lastUse" : ISODate("2018-11-27T14:37:58.849+0000")
}
{ 
    "_id" : {
        "id" : BinData(4, "GShsaa6XSEyzKavxVvLD6A=="), 
        "uid" : BinData(0, "47DEQpj8HBSa+/TImW+5JCeuQeRkm5NMpJWZG3hSuFU=")
    }, 
    "lastUse" : ISODate("2018-11-27T14:37:58.849+0000")
}
{ 
    "_id" : {
        "id" : BinData(4, "+nqHCnWpQ9eQ8BsrBMuMoA=="), 
        "uid" : BinData(0, "47DEQpj8HBSa+/TImW+5JCeuQeRkm5NMpJWZG3hSuFU=")
    }, 
    "lastUse" : ISODate("2018-11-27T14:37:58.849+0000")
}
{ 
    "_id" : {
        "id" : BinData(4, "oPbNEO8xQsaxx9KboMS+aw=="), 
        "uid" : BinData(0, "47DEQpj8HBSa+/TImW+5JCeuQeRkm5NMpJWZG3hSuFU=")
    }, 
    "lastUse" : ISODate("2018-11-27T14:37:58.849+0000")
}
{ 
    "_id" : {
        "id" : BinData(4, "8UtGcwAkRO2wKwwX2XypVA=="), 
        "uid" : BinData(0, "47DEQpj8HBSa+/TImW+5JCeuQeRkm5NMpJWZG3hSuFU=")
    }, 
    "lastUse" : ISODate("2018-11-27T14:37:58.850+0000")
}
{ 
    "_id" : {
        "id" : BinData(4, "vjobv3x6TA+DOGJPQM6m+w=="), 
        "uid" : BinData(0, "47DEQpj8HBSa+/TImW+5JCeuQeRkm5NMpJWZG3hSuFU=")
    }, 
    "lastUse" : ISODate("2018-11-27T14:37:58.850+0000")
}
{ 
    "_id" : {
        "id" : BinData(4, "eirXJiNqRjCfm1Kv2pBdKg=="), 
        "uid" : BinData(0, "47DEQpj8HBSa+/TImW+5JCeuQeRkm5NMpJWZG3hSuFU=")
    }, 
    "lastUse" : ISODate("2018-11-27T14:37:58.850+0000")
}
{ 
    "_id" : {
        "id" : BinData(4, "BiSTasu2S6KuZgZf/1Uf3w=="), 
        "uid" : BinData(0, "47DEQpj8HBSa+/TImW+5JCeuQeRkm5NMpJWZG3hSuFU=")
    }, 
    "lastUse" : ISODate("2018-11-27T14:37:58.850+0000")
}
{ 
    "_id" : {
        "id" : BinData(4, "OWbBGhs0S1OCZmsOZh//rg=="), 
        "uid" : BinData(0, "47DEQpj8HBSa+/TImW+5JCeuQeRkm5NMpJWZG3hSuFU=")
    }, 
    "lastUse" : ISODate("2018-11-27T14:37:58.850+0000")
}
{ 
    "_id" : {
        "id" : BinData(4, "HgG8LOh+R2ynIObQ/9QZwg=="), 
        "uid" : BinData(0, "47DEQpj8HBSa+/TImW+5JCeuQeRkm5NMpJWZG3hSuFU=")
    }, 
    "lastUse" : ISODate("2018-11-27T14:37:58.850+0000")
}
{ 
    "_id" : {
        "id" : BinData(4, "BTE6A5YlTGi7cWI8zP2+lA=="), 
        "uid" : BinData(0, "47DEQpj8HBSa+/TImW+5JCeuQeRkm5NMpJWZG3hSuFU=")
    }, 
    "lastUse" : ISODate("2018-11-27T14:37:58.850+0000")
}
{ 
    "_id" : {
        "id" : BinData(4, "LF+2VKtUSZe8lEmgQqxGlA=="), 
        "uid" : BinData(0, "47DEQpj8HBSa+/TImW+5JCeuQeRkm5NMpJWZG3hSuFU=")
    }, 
    "lastUse" : ISODate("2018-11-27T14:37:58.850+0000")
}
{ 
    "_id" : {
        "id" : BinData(4, "9M3LXb0GSu2nTT4/xucNsw=="), 
        "uid" : BinData(0, "47DEQpj8HBSa+/TImW+5JCeuQeRkm5NMpJWZG3hSuFU=")
    }, 
    "lastUse" : ISODate("2018-11-27T14:37:58.850+0000")
}
{ 
    "_id" : {
        "id" : BinData(4, "U6m34GruTK+bUsSF4t2C+A=="), 
        "uid" : BinData(0, "47DEQpj8HBSa+/TImW+5JCeuQeRkm5NMpJWZG3hSuFU=")
    }, 
    "lastUse" : ISODate("2018-11-27T14:37:58.850+0000")
}
{ 
    "_id" : {
        "id" : BinData(4, "YqtOpbQRT6aQvzVc4zXt0g=="), 
        "uid" : BinData(0, "47DEQpj8HBSa+/TImW+5JCeuQeRkm5NMpJWZG3hSuFU=")
    }, 
    "lastUse" : ISODate("2018-11-27T14:37:58.850+0000")
}
{ 
    "_id" : {
        "id" : BinData(4, "18RrqA+2QUaQPzsW9L2/Og=="), 
        "uid" : BinData(0, "47DEQpj8HBSa+/TImW+5JCeuQeRkm5NMpJWZG3hSuFU=")
    }, 
    "lastUse" : ISODate("2018-11-27T14:42:58.849+0000")
}
{ 
    "_id" : {
        "id" : BinData(4, "etpMUNtrTCeSNxUOUbYxew=="), 
        "uid" : BinData(0, "47DEQpj8HBSa+/TImW+5JCeuQeRkm5NMpJWZG3hSuFU=")
    }, 
    "lastUse" : ISODate("2018-11-27T14:42:58.849+0000")
}
