{ 
    "_id" : ObjectId("5c126b134e81961dc8d1f684"), 
    "name" : "dsa", 
    "__v" : NumberInt(0)
}
{ 
    "_id" : ObjectId("5c1287984e81961dc8d1f685"), 
    "name" : "Максим", 
    "suname" : "Князєв", 
    "batko" : "Аднреевич", 
    "email" : "knyazev-maks@mail.ua", 
    "password" : "232323", 
    "topassword" : "232323", 
    "misto" : "Запоріжжя", 
    "number" : "+380500148358", 
    "__v" : NumberInt(0)
}
